Bella Beat
…
Lets look at daily data!

Now, Im going to look at the datasets and figure out the best way to handle them.

Activity dataset

as_tibble(activity_daily)

## # A tibble: 940 x 15
##            Id ActivityDate TotalSteps TotalDistance TrackerDistance LoggedActivitie~
##         <dbl> <chr>             <int>         <dbl>           <dbl>            <dbl>
##  1 1503960366 4/12/2016         13162          8.5             8.5                 0
##  2 1503960366 4/13/2016         10735          6.97            6.97                0
##  3 1503960366 4/14/2016         10460          6.74            6.74                0
##  4 1503960366 4/15/2016          9762          6.28            6.28                0
##  5 1503960366 4/16/2016         12669          8.16            8.16                0
##  6 1503960366 4/17/2016          9705          6.48            6.48                0
##  7 1503960366 4/18/2016         13019          8.59            8.59                0
##  8 1503960366 4/19/2016         15506          9.88            9.88                0
##  9 1503960366 4/20/2016         10544          6.68            6.68                0
## 10 1503960366 4/21/2016          9819          6.34            6.34                0
## # ... with 930 more rows, and 9 more variables: VeryActiveDistance <dbl>,
## #   ModeratelyActiveDistance <dbl>, LightActiveDistance <dbl>,
## #   SedentaryActiveDistance <dbl>, VeryActiveMinutes <int>,
## #   FairlyActiveMinutes <int>, LightlyActiveMinutes <int>,
## #   SedentaryMinutes <int>, Calories <int>

Calories dataset

as_tibble(calories_daily)

## # A tibble: 940 x 3
##            Id ActivityDay Calories
##         <dbl> <chr>          <int>
##  1 1503960366 4/12/2016       1985
##  2 1503960366 4/13/2016       1797
##  3 1503960366 4/14/2016       1776
##  4 1503960366 4/15/2016       1745
##  5 1503960366 4/16/2016       1863
##  6 1503960366 4/17/2016       1728
##  7 1503960366 4/18/2016       1921
##  8 1503960366 4/19/2016       2035
##  9 1503960366 4/20/2016       1786
## 10 1503960366 4/21/2016       1775
## # ... with 930 more rows

Intensities dataset

as_tibble(intensities_daily)

## # A tibble: 940 x 10
##            Id ActivityDay SedentaryMinutes LightlyActiveMinutes FairlyActiveMin~
##         <dbl> <chr>                  <int>                <int>            <int>
##  1 1503960366 4/12/2016                728                  328               13
##  2 1503960366 4/13/2016                776                  217               19
##  3 1503960366 4/14/2016               1218                  181               11
##  4 1503960366 4/15/2016                726                  209               34
##  5 1503960366 4/16/2016                773                  221               10
##  6 1503960366 4/17/2016                539                  164               20
##  7 1503960366 4/18/2016               1149                  233               16
##  8 1503960366 4/19/2016                775                  264               31
##  9 1503960366 4/20/2016                818                  205               12
## 10 1503960366 4/21/2016                838                  211                8
## # ... with 930 more rows, and 5 more variables: VeryActiveMinutes <int>,
## #   SedentaryActiveDistance <dbl>, LightActiveDistance <dbl>,
## #   ModeratelyActiveDistance <dbl>, VeryActiveDistance <dbl>

Steps dataset

as_tibble(steps_daily)

## # A tibble: 940 x 3
##            Id ActivityDay StepTotal
##         <dbl> <chr>           <int>
##  1 1503960366 4/12/2016       13162
##  2 1503960366 4/13/2016       10735
##  3 1503960366 4/14/2016       10460
##  4 1503960366 4/15/2016        9762
##  5 1503960366 4/16/2016       12669
##  6 1503960366 4/17/2016        9705
##  7 1503960366 4/18/2016       13019
##  8 1503960366 4/19/2016       15506
##  9 1503960366 4/20/2016       10544
## 10 1503960366 4/21/2016        9819
## # ... with 930 more rows

Sleep dataset

as_tibble(sleep_daily)

## # A tibble: 413 x 5
##            Id SleepDay              TotalSleepRecor~ TotalMinutesAsl~ TotalTimeInBed
##         <dbl> <chr>                            <int>            <int>          <int>
##  1 1503960366 4/12/2016 12:00:00 AM                1              327            346
##  2 1503960366 4/13/2016 12:00:00 AM                2              384            407
##  3 1503960366 4/15/2016 12:00:00 AM                1              412            442
##  4 1503960366 4/16/2016 12:00:00 AM                2              340            367
##  5 1503960366 4/17/2016 12:00:00 AM                1              700            712
##  6 1503960366 4/19/2016 12:00:00 AM                1              304            320
##  7 1503960366 4/20/2016 12:00:00 AM                1              360            377
##  8 1503960366 4/21/2016 12:00:00 AM                1              325            364
##  9 1503960366 4/23/2016 12:00:00 AM                1              361            384
## 10 1503960366 4/24/2016 12:00:00 AM                1              430            449
## # ... with 403 more rows

Heart rate dataset

as_tibble(heartrate_daily)

## # A tibble: 334 x 5
##            Id Time_day   AverageBPM MaxBPM MinBPM
##         <dbl> <date>          <dbl>  <int>  <int>
##  1 2022484408 2016-04-12       75.8    134     52
##  2 2022484408 2016-04-13       80.3    156     51
##  3 2022484408 2016-04-14       72.6    127     50
##  4 2022484408 2016-04-15       80.4    189     53
##  5 2022484408 2016-04-16       76.0    136     49
##  6 2022484408 2016-04-17       83.9    161     52
##  7 2022484408 2016-04-18       82.7    153     54
##  8 2022484408 2016-04-19       82.0    162     54
##  9 2022484408 2016-04-20       83.4    166     50
## 10 2022484408 2016-04-21       86.4    203     53
## # ... with 324 more rows

Metabolic dataset

as_tibble(metabolic_daily)

## # A tibble: 934 x 5
##            Id ActivityMinute_day AverageMETs MaxMETs MinMETs
##         <dbl> <date>                   <dbl>   <dbl>   <dbl>
##  1 1503960366 2016-04-12                1.75     9.9       1
##  2 1503960366 2016-04-13                1.59    11.1       1
##  3 1503960366 2016-04-14                1.57     9.7       1
##  4 1503960366 2016-04-15                1.54     9.7       1
##  5 1503960366 2016-04-16                1.65    10.3       1
##  6 1503960366 2016-04-17                1.53     9.5       1
##  7 1503960366 2016-04-18                1.70    10.7       1
##  8 1503960366 2016-04-19                1.80    10.9       1
##  9 1503960366 2016-04-20                1.58     8.4       1
## 10 1503960366 2016-04-21                1.57    10.3       1
## # ... with 924 more rows
…
5. Fill NA values

# Filling missing values
daily_data[is.na(daily_data)] <- -999

6. Store resulted dataset in a file

write.csv(daily_data, 'data/merged_data/daily_data.csv')

7. Daily Data preview

as_tibble(daily_data)

## # A tibble: 943 x 24
##            Id ActivityDate TotalSteps TotalDistance TrackerDistance LoggedActivitie~
##         <dbl> <date>            <int>         <dbl>           <dbl>            <dbl>
##  1 1503960366 2016-04-12        13162          8.5             8.5                 0
##  2 1503960366 2016-04-13        10735          6.97            6.97                0
##  3 1503960366 2016-04-14        10460          6.74            6.74                0
##  4 1503960366 2016-04-15         9762          6.28            6.28                0
##  5 1503960366 2016-04-16        12669          8.16            8.16                0
##  6 1503960366 2016-04-17         9705          6.48            6.48                0
##  7 1503960366 2016-04-18        13019          8.59            8.59                0
##  8 1503960366 2016-04-19        15506          9.88            9.88                0
##  9 1503960366 2016-04-20        10544          6.68            6.68                0
## 10 1503960366 2016-04-21         9819          6.34            6.34                0
## # ... with 933 more rows, and 18 more variables: VeryActiveDistance <dbl>,
## #   ModeratelyActiveDistance <dbl>, LightActiveDistance <dbl>,
## #   SedentaryActiveDistance <dbl>, VeryActiveMinutes <int>,
## #   FairlyActiveMinutes <int>, LightlyActiveMinutes <int>,
## #   SedentaryMinutes <int>, Calories <int>, TotalSleepRecords <dbl>,
## #   TotalMinutesAsleep <dbl>, TotalTimeInBed <dbl>, AverageBPM <dbl>,
## #   MaxBPM <dbl>, MinBPM <dbl>, AverageMETs <dbl>, MaxMETs <dbl>, ...

Lets look at hourly data!

Calories

as_tibble(calories_hourly)

## # A tibble: 22,099 x 3
##            Id ActivityHour          Calories
##         <dbl> <chr>                    <int>
##  1 1503960366 4/12/2016 12:00:00 AM       81
##  2 1503960366 4/12/2016 1:00:00 AM        61
##  3 1503960366 4/12/2016 2:00:00 AM        59
##  4 1503960366 4/12/2016 3:00:00 AM        47
##  5 1503960366 4/12/2016 4:00:00 AM        48
##  6 1503960366 4/12/2016 5:00:00 AM        48
##  7 1503960366 4/12/2016 6:00:00 AM        48
##  8 1503960366 4/12/2016 7:00:00 AM        47
##  9 1503960366 4/12/2016 8:00:00 AM        68
## 10 1503960366 4/12/2016 9:00:00 AM       141
## # ... with 22,089 more rows

Intensities

as_tibble(intensities_hourly)

## # A tibble: 22,099 x 4
##            Id ActivityHour          TotalIntensity AverageIntensity
##         <dbl> <chr>                          <int>            <dbl>
##  1 1503960366 4/12/2016 12:00:00 AM             20            0.333
##  2 1503960366 4/12/2016 1:00:00 AM               8            0.133
##  3 1503960366 4/12/2016 2:00:00 AM               7            0.117
##  4 1503960366 4/12/2016 3:00:00 AM               0            0    
##  5 1503960366 4/12/2016 4:00:00 AM               0            0    
##  6 1503960366 4/12/2016 5:00:00 AM               0            0    
##  7 1503960366 4/12/2016 6:00:00 AM               0            0    
##  8 1503960366 4/12/2016 7:00:00 AM               0            0    
##  9 1503960366 4/12/2016 8:00:00 AM              13            0.217
## 10 1503960366 4/12/2016 9:00:00 AM              30            0.5  
## # ... with 22,089 more rows

Steps

as_tibble(steps_hourly)

## # A tibble: 22,099 x 3
##            Id ActivityHour          StepTotal
##         <dbl> <chr>                     <int>
##  1 1503960366 4/12/2016 12:00:00 AM       373
##  2 1503960366 4/12/2016 1:00:00 AM        160
##  3 1503960366 4/12/2016 2:00:00 AM        151
##  4 1503960366 4/12/2016 3:00:00 AM          0
##  5 1503960366 4/12/2016 4:00:00 AM          0
##  6 1503960366 4/12/2016 5:00:00 AM          0
##  7 1503960366 4/12/2016 6:00:00 AM          0
##  8 1503960366 4/12/2016 7:00:00 AM          0
##  9 1503960366 4/12/2016 8:00:00 AM        250
## 10 1503960366 4/12/2016 9:00:00 AM       1864
## # ... with 22,089 more rows

Sleep

as_tibble(sleep_hourly)

## # A tibble: 3,574 x 3
##            Id date_hour           MinutesInBed
##         <dbl> <dttm>                     <dbl>
##  1 1503960366 2016-04-12 02:00:00           13
##  2 1503960366 2016-04-12 03:00:00           60
##  3 1503960366 2016-04-12 04:00:00           60
##  4 1503960366 2016-04-12 05:00:00           60
##  5 1503960366 2016-04-12 06:00:00           60
##  6 1503960366 2016-04-12 07:00:00           60
##  7 1503960366 2016-04-12 08:00:00           33
##  8 1503960366 2016-04-13 03:00:00           52
##  9 1503960366 2016-04-13 04:00:00           60
## 10 1503960366 2016-04-13 05:00:00           60
## # ... with 3,564 more rows

Heart rate

as_tibble(heartrate_hourly)

## # A tibble: 6,013 x 5
##            Id Time_hour           AverageBPM MaxBPM MinBPM
##         <dbl> <dttm>                   <dbl>  <int>  <int>
##  1 2022484408 2016-04-12 07:00:00       83.2    108     52
##  2 2022484408 2016-04-12 08:00:00       68.6    112     54
##  3 2022484408 2016-04-12 09:00:00       66.4    105     55
##  4 2022484408 2016-04-12 10:00:00      107.     134     60
##  5 2022484408 2016-04-12 11:00:00       67.8     90     55
##  6 2022484408 2016-04-12 12:00:00       66.2     89     56
##  7 2022484408 2016-04-12 13:00:00       83.7    112     60
##  8 2022484408 2016-04-12 14:00:00       80.6    107     59
##  9 2022484408 2016-04-12 15:00:00       68.3    112     59
## 10 2022484408 2016-04-12 16:00:00       71.0    105     54
## # ... with 6,003 more rows

Metabolic

as_tibble(metabolic_hourly)

## # A tibble: 22,093 x 5
##            Id ActivityMinute_hour AverageMETs MaxMETs Min_METs
##         <dbl> <dttm>                    <dbl>   <dbl>    <dbl>
##  1 1503960366 2016-04-12 00:00:00        1.72     3.6        1
##  2 1503960366 2016-04-12 01:00:00        1.28     3.4        1
##  3 1503960366 2016-04-12 02:00:00        1.25     3.6        1
##  4 1503960366 2016-04-12 03:00:00        1        1          1
##  5 1503960366 2016-04-12 04:00:00        1.01     1.2        1
##  6 1503960366 2016-04-12 05:00:00        1.01     1.2        1
##  7 1503960366 2016-04-12 06:00:00        1.01     1.2        1
##  8 1503960366 2016-04-12 07:00:00        1.00     1.2        1
##  9 1503960366 2016-04-12 08:00:00        1.44     3.4        1
## 10 1503960366 2016-04-12 09:00:00        2.98     9.9        1
## # ... with 22,083 more rows
…
8. Fill NA values

# Fill na values
hourly_data[is.na(hourly_data)] <- -999

9. Store resulted dataset in a file

write.csv(hourly_data,'data/merged_data/hourly_data.csv')

10. Hourly Data Preview

as_tibble(hourly_data)

## # A tibble: 22,099 x 13
##        Id ActivityHour        Calories TotalIntensity AverageIntensity StepTotal
##     <dbl> <dttm>                 <int>          <int>            <dbl>     <int>
##  1 1.50e9 2016-04-12 00:00:00       81             20            0.333       373
##  2 1.50e9 2016-04-12 01:00:00       61              8            0.133       160
##  3 1.50e9 2016-04-12 02:00:00       59              7            0.117       151
##  4 1.50e9 2016-04-12 03:00:00       47              0            0             0
##  5 1.50e9 2016-04-12 04:00:00       48              0            0             0
##  6 1.50e9 2016-04-12 05:00:00       48              0            0             0
##  7 1.50e9 2016-04-12 06:00:00       48              0            0             0
##  8 1.50e9 2016-04-12 07:00:00       47              0            0             0
##  9 1.50e9 2016-04-12 08:00:00       68             13            0.217       250
## 10 1.50e9 2016-04-12 09:00:00      141             30            0.5        1864
## # ... with 22,089 more rows, and 7 more variables: MinutesInBed <dbl>,
## #   AverageBPM <dbl>, MaxBPM <dbl>, MinBPM <dbl>, AverageMETs <dbl>,
## #   MaxMETs <dbl>, Min_METs <dbl>
…
# Merge Wide data pivoted and Narrow data
steps_minute <- merge(stepsNarrow_minute, steps_pivoted, by=c('Id','ActivityHour'), all.x=TRUE)

# Combine resulting columns into one
steps_minute <- steps_minute %>% mutate(Steps = ifelse(is.na(Steps.y), Steps.x, Steps.y))

# Delete old columns
steps_minute$Steps.x <- NULL
steps_minute$Steps.y <- NULL

Calories

as_tibble(calories_minute)

## # A tibble: 1,325,580 x 3
##            Id ActivityHour        Calories
##         <dbl> <dttm>                 <dbl>
##  1 1503960366 2016-04-12 00:00:00    0.786
##  2 1503960366 2016-04-12 00:01:00    0.786
##  3 1503960366 2016-04-12 00:02:00    0.786
##  4 1503960366 2016-04-12 00:03:00    0.786
##  5 1503960366 2016-04-12 00:04:00    0.786
##  6 1503960366 2016-04-12 00:05:00    0.944
##  7 1503960366 2016-04-12 00:06:00    0.944
##  8 1503960366 2016-04-12 00:07:00    0.944
##  9 1503960366 2016-04-12 00:08:00    0.944
## 10 1503960366 2016-04-12 00:09:00    0.944
## # ... with 1,325,570 more rows

Intensities

as_tibble(intensities_minute)

## # A tibble: 1,325,580 x 3
##            Id ActivityHour        Intensity
##         <dbl> <dttm>                  <int>
##  1 1503960366 2016-04-12 00:00:00         0
##  2 1503960366 2016-04-12 00:01:00         0
##  3 1503960366 2016-04-12 00:02:00         0
##  4 1503960366 2016-04-12 00:03:00         0
##  5 1503960366 2016-04-12 00:04:00         0
##  6 1503960366 2016-04-12 00:05:00         0
##  7 1503960366 2016-04-12 00:06:00         0
##  8 1503960366 2016-04-12 00:07:00         0
##  9 1503960366 2016-04-12 00:08:00         0
## 10 1503960366 2016-04-12 00:09:00         0
## # ... with 1,325,570 more rows

Steps

as_tibble(steps_minute)

## # A tibble: 1,325,580 x 3
##            Id ActivityHour        Steps
##         <dbl> <dttm>              <int>
##  1 1503960366 2016-04-12 00:00:00     0
##  2 1503960366 2016-04-12 00:01:00     0
##  3 1503960366 2016-04-12 00:02:00     0
##  4 1503960366 2016-04-12 00:03:00     0
##  5 1503960366 2016-04-12 00:04:00     0
##  6 1503960366 2016-04-12 00:05:00     0
##  7 1503960366 2016-04-12 00:06:00     0
##  8 1503960366 2016-04-12 00:07:00     0
##  9 1503960366 2016-04-12 00:08:00     0
## 10 1503960366 2016-04-12 00:09:00     0
## # ... with 1,325,570 more rows

Sleep

as_tibble(sleep_minute)

## # A tibble: 188,521 x 4
##            Id date                value       logId
##         <dbl> <dttm>              <int>       <dbl>
##  1 1503960366 2016-04-12 02:47:30     3 11380564589
##  2 1503960366 2016-04-12 02:48:30     2 11380564589
##  3 1503960366 2016-04-12 02:49:30     1 11380564589
##  4 1503960366 2016-04-12 02:50:30     1 11380564589
##  5 1503960366 2016-04-12 02:51:30     1 11380564589
##  6 1503960366 2016-04-12 02:52:30     1 11380564589
##  7 1503960366 2016-04-12 02:53:30     1 11380564589
##  8 1503960366 2016-04-12 02:54:30     2 11380564589
##  9 1503960366 2016-04-12 02:55:30     2 11380564589
## 10 1503960366 2016-04-12 02:56:30     2 11380564589
## # ... with 188,511 more rows

Heart rate

as_tibble(heartrate_minute)

## # A tibble: 333,420 x 5
##            Id Time_min            AverageBPM MaxBPM MinBPM
##         <dbl> <dttm>                   <dbl>  <int>  <int>
##  1 2022484408 2016-04-12 07:21:00      102.     105     97
##  2 2022484408 2016-04-12 07:22:00       87.9     95     61
##  3 2022484408 2016-04-12 07:23:00       58       61     54
##  4 2022484408 2016-04-12 07:24:00       58       60     56
##  5 2022484408 2016-04-12 07:25:00       56.8     60     52
##  6 2022484408 2016-04-12 07:26:00       53.2     54     53
##  7 2022484408 2016-04-12 07:27:00       55.1     58     53
##  8 2022484408 2016-04-12 07:28:00       65.7     68     60
##  9 2022484408 2016-04-12 07:29:00       73       76     68
## 10 2022484408 2016-04-12 07:30:00       78       78     78
## # ... with 333,410 more rows

Metabolic

as_tibble(metabolic_minute)

## # A tibble: 1,325,580 x 3
##            Id ActivityMinute       METs
##         <dbl> <dttm>              <dbl>
##  1 1503960366 2016-04-12 00:00:00   1  
##  2 1503960366 2016-04-12 00:01:00   1  
##  3 1503960366 2016-04-12 00:02:00   1  
##  4 1503960366 2016-04-12 00:03:00   1  
##  5 1503960366 2016-04-12 00:04:00   1  
##  6 1503960366 2016-04-12 00:05:00   1.2
##  7 1503960366 2016-04-12 00:06:00   1.2
##  8 1503960366 2016-04-12 00:07:00   1.2
##  9 1503960366 2016-04-12 00:08:00   1.2
## 10 1503960366 2016-04-12 00:09:00   1.2
## # ... with 1,325,570 more rows
…
